2190,Eleven Holland,11H,Central,1,1,T4
2159,Emerald Hill,EMR,Central,1,1,T4
2191,Hwa Chong,HCG4,Central,2,2,T2
2192,Palm Spring Condo,PSC,Central,3,2,T4
1813,Singapore Cricket Club,SCC,Central,1,1,T4
2194,Tan Chin Tuan,TCT,Central,2,2,T1
2001,The Interlace,ITL,Central,8,6,T6
2089,The Lincoln Residences,LCR,Central,2,1,T6
2195,Tribeca by the Waterfront,TRI,Central,3,2,T4
2141,Butterworth 8,BW8,East,2,2,T4
1713,Flextronics Changi,FCS,East,4,2,T4
1712,Flextronics Kallang,FKP,East,3,2,T4
2150,Orange Valley,OV,East,0,1,T8
2002,Sky Greens,SKG,East,1,2,T4
1959,Twin Waterfall,TWF,East,5,4,T4
2117,Waterfront Key,WFK,East,4,3,T4
2160,AB Sciex,SCIEX,North,1,0,T7
1955,Foresque Residences,FOR,North,4,3,T4
1956,Hap Seng ,HSE,North,1,1,T4
1834,Kong Meng San,KMS,North,3,3,T3
1591,Northoaks,OAK,North,4,3,T6
2193,Sembcorp,SGB,North,2,1,T5
1957,Sky Vue,SVUE,North,5,4,T4
1838,STA Sin Ming,SM,North,1,1,T3
1958,Yew Mei Green,YMG,North,4,3,T4
1714,Flextronics Joo Koon,FJK,West,2,1,T4
1837,STAI Jalan Boon Lay,STA,West,1,1,T2
2131,Summerhill Condo,SHC,West,3,3,T4
2189,Commonwealth Food Service,COM,West,2,1,T4
